<?xml version="1.0" encoding="UTF-8"?>
<!DOCTYPE svg PUBLIC "-//W3C//DTD SVG 1.1//EN" "http://www.w3.org/Graphics/SVG/1.1/DTD/svg11.dtd">
<svg version="1.2" width="152.4mm" height="43.18mm" viewBox="0 0 15240 4318" preserveAspectRatio="xMidYMid" fill-rule="evenodd" stroke-width="28.222" stroke-linejoin="round" xmlns="http://www.w3.org/2000/svg" xmlns:ooo="http://xml.openoffice.org/svg/export" xmlns:xlink="http://www.w3.org/1999/xlink" xmlns:presentation="http://sun.com/xmlns/staroffice/presentation" xmlns:smil="http://www.w3.org/2001/SMIL20/" xmlns:anim="urn:oasis:names:tc:opendocument:xmlns:animation:1.0" xml:space="preserve">
 <defs class="ClipPathGroup">
  <clipPath id="presentation_clip_path" clipPathUnits="userSpaceOnUse">
   <rect x="0" y="0" width="15240" height="4318"/>
  </clipPath>
  <clipPath id="presentation_clip_path_shrink" clipPathUnits="userSpaceOnUse">
   <rect x="15" y="4" width="15210" height="4310"/>
  </clipPath>
 </defs>
 <defs>
  <font id="EmbeddedFont_1" horiz-adv-x="2048">
   <font-face font-family="Liberation Mono embedded" units-per-em="2048" font-weight="bold" font-style="normal" ascent="1700" descent="620"/>
   <missing-glyph horiz-adv-x="2048" d="M 0,0 L 2047,0 2047,2047 0,2047 0,0 Z"/>
   <glyph unicode="s" horiz-adv-x="1001" d="M 1104,316 C 1104,211 1061,129 976,70 890,10 771,-20 620,-20 471,-20 358,4 279,51 200,98 147,171 121,270 L 368,307 C 382,256 406,219 441,198 475,177 535,166 620,166 699,166 756,176 792,196 828,216 846,247 846,290 846,325 832,352 803,373 774,393 724,410 655,424 496,455 389,485 334,512 279,539 237,574 208,617 179,660 164,712 164,775 164,878 204,959 284,1017 363,1074 476,1103 622,1103 751,1103 854,1078 933,1028 1011,978 1060,906 1079,811 L 830,785 C 822,829 802,862 771,884 740,905 690,916 622,916 555,916 505,908 472,891 439,874 422,845 422,805 422,774 435,749 461,731 486,712 529,697 590,685 675,668 750,650 816,632 881,613 934,591 974,566 1013,541 1045,508 1069,469 1092,429 1104,378 1104,316 Z"/>
   <glyph unicode="n" horiz-adv-x="1001" d="M 824,0 L 824,619 C 824,713 811,782 786,826 760,870 716,892 653,892 584,892 528,863 487,804 445,745 424,670 424,580 L 424,0 143,0 143,840 C 143,898 142,946 141,983 139,1020 137,1053 135,1082 L 403,1082 C 405,1069 408,1036 411,981 414,926 416,888 416,867 L 420,867 C 458,950 506,1010 563,1047 620,1084 689,1103 768,1103 992,1103 1104,964 1104,687 L 1104,0 Z"/>
   <glyph unicode="l" horiz-adv-x="1061" d="M 794,190 L 1147,190 1147,0 118,0 118,190 513,190 513,1294 223,1294 223,1484 794,1484 Z"/>
   <glyph unicode="i" horiz-adv-x="1061" d="M 794,190 L 1147,190 1147,0 118,0 118,190 513,190 513,892 223,892 223,1082 794,1082 Z M 513,1277 L 513,1484 794,1484 794,1277 Z"/>
   <glyph unicode="b" horiz-adv-x="1001" d="M 140,0 C 145,91 148,169 148,236 L 148,1484 429,1484 429,1090 427,912 429,912 C 456,973 498,1020 553,1053 608,1086 672,1103 746,1103 870,1103 965,1054 1032,956 1099,858 1132,719 1132,540 1132,371 1097,235 1026,133 955,31 859,-20 737,-20 668,-20 607,-4 555,30 502,63 461,111 431,176 L 427,176 C 427,154 426,124 423,85 420,46 416,17 412,0 Z M 425,547 C 425,467 434,399 452,344 469,289 494,246 527,217 559,187 596,172 638,172 702,172 752,203 787,264 822,325 839,417 839,540 839,662 822,755 788,818 753,881 703,912 636,912 571,912 519,880 482,816 444,752 425,662 425,547 Z"/>
   <glyph unicode="F" horiz-adv-x="961" d="M 462,1121 L 462,737 1083,737 1083,509 462,509 462,0 167,0 167,1349 1106,1349 1106,1121 Z"/>
   <glyph unicode="/" horiz-adv-x="1061" d="M 89,-20 L 910,1484 1138,1484 321,-20 Z"/>
   <glyph unicode="-" horiz-adv-x="601" d="M 324,409 L 324,653 904,653 904,409 Z"/>
   <glyph unicode=" " horiz-adv-x="1220"/>
  </font>
 </defs>
 <defs>
  <font id="EmbeddedFont_2" horiz-adv-x="2048">
   <font-face font-family="Liberation Serif embedded" units-per-em="2048" font-weight="bold" font-style="normal" ascent="1820" descent="440"/>
   <missing-glyph horiz-adv-x="2048" d="M 0,0 L 2047,0 2047,2047 0,2047 0,0 Z"/>
   <glyph unicode="u" horiz-adv-x="1081" d="M 705,82 L 637,47 C 544,-1 460,-25 385,-25 212,-25 125,67 125,252 L 125,850 31,874 31,940 414,940 414,291 C 414,235 426,191 450,160 473,129 507,113 551,113 602,113 652,124 703,147 L 703,850 617,874 617,940 992,940 992,90 1084,66 1084,0 719,0 Z"/>
   <glyph unicode="t" horiz-adv-x="661" d="M 438,-20 C 348,-20 279,0 230,41 181,82 156,140 156,217 L 156,836 33,836 33,901 178,940 295,1153 445,1153 445,940 643,940 643,836 445,836 445,235 C 445,192 454,159 472,137 490,115 514,104 543,104 578,104 622,109 673,120 L 673,35 C 653,21 619,8 571,-3 522,-14 478,-20 438,-20 Z"/>
   <glyph unicode="r" horiz-adv-x="841" d="M 461,745 C 533,825 598,883 655,918 712,953 764,970 811,970 L 865,970 865,627 809,627 750,753 C 708,753 660,744 607,726 554,707 507,686 466,661 L 466,90 617,66 617,0 55,0 55,66 177,90 177,850 55,874 55,940 450,940 Z"/>
   <glyph unicode="p" horiz-adv-x="1041" d="M 409,892 C 480,941 567,965 669,965 800,965 897,927 961,850 1024,773 1056,652 1056,487 1056,323 1019,198 945,111 871,24 765,-20 626,-20 555,-20 484,-11 412,7 416,-37 418,-86 418,-141 L 418,-346 556,-370 556,-436 27,-436 27,-370 129,-346 129,850 26,874 26,940 407,940 Z M 763,480 C 763,729 705,854 589,854 527,854 470,841 418,816 L 418,107 C 472,93 528,86 587,86 704,86 763,217 763,480 Z"/>
   <glyph unicode="o" horiz-adv-x="901" d="M 946,475 C 946,306 910,182 838,101 765,20 655,-20 506,-20 362,-20 255,21 184,103 113,184 78,308 78,475 78,641 114,764 186,845 257,925 367,965 514,965 663,965 772,924 842,841 911,758 946,636 946,475 Z M 653,475 C 653,622 642,723 621,780 599,836 561,864 508,864 457,864 421,837 401,783 381,729 371,626 371,475 371,321 381,217 402,162 422,107 457,80 508,80 561,80 598,109 620,167 642,224 653,327 653,475 Z"/>
   <glyph unicode="n" horiz-adv-x="1081" d="M 434,858 L 502,893 C 595,941 679,965 754,965 927,965 1014,873 1014,688 L 1014,90 1108,66 1108,0 641,0 641,66 725,90 725,649 C 725,705 713,749 690,780 666,811 632,827 588,827 537,827 487,816 436,793 L 436,90 522,66 522,0 55,0 55,66 147,90 147,850 55,874 55,940 420,940 Z"/>
   <glyph unicode="m" horiz-adv-x="1641" d="M 434,858 L 502,893 C 595,941 679,965 753,965 865,965 940,924 977,843 1114,924 1229,965 1323,965 1492,965 1577,873 1577,688 L 1577,90 1671,66 1671,0 1204,0 1204,66 1288,90 1288,649 C 1288,705 1277,749 1256,780 1234,811 1201,827 1157,827 1108,827 1054,813 997,785 1004,757 1007,725 1007,688 L 1007,90 1101,66 1101,0 634,0 634,66 718,90 718,649 C 718,705 707,749 686,780 664,811 631,827 587,827 543,827 493,814 436,788 L 436,90 522,66 522,0 55,0 55,66 147,90 147,850 55,874 55,940 420,940 Z"/>
   <glyph unicode="i" horiz-adv-x="501" d="M 436,90 L 539,66 539,0 45,0 45,66 147,90 147,850 51,874 51,940 436,940 Z M 137,1268 C 137,1311 152,1348 183,1377 213,1406 249,1421 291,1421 334,1421 370,1406 400,1377 429,1347 444,1311 444,1268 444,1226 429,1190 400,1160 371,1129 334,1114 291,1114 248,1114 212,1129 182,1159 152,1188 137,1225 137,1268 Z"/>
   <glyph unicode="h" horiz-adv-x="1081" d="M 436,1014 C 436,970 434,918 430,858 L 499,893 C 594,941 679,965 754,965 927,965 1014,873 1014,688 L 1014,90 1108,66 1108,0 641,0 641,66 725,90 725,649 C 725,705 713,749 690,780 666,811 632,827 588,827 537,827 487,816 436,793 L 436,90 522,66 522,0 55,0 55,66 147,90 147,1331 51,1355 51,1421 436,1421 Z"/>
   <glyph unicode="g" horiz-adv-x="981" d="M 257,347 C 138,397 79,495 79,640 79,744 115,824 188,881 261,937 365,965 500,965 529,965 566,963 611,958 656,953 688,947 709,940 L 934,1051 969,1008 855,846 C 896,795 917,727 917,640 917,534 881,453 810,396 738,339 633,310 496,310 443,310 392,314 343,322 L 319,246 C 320,227 333,209 356,192 379,175 408,166 442,166 L 661,166 C 890,166 1004,78 1004,-98 1004,-171 984,-233 945,-286 905,-338 847,-379 770,-408 693,-437 597,-452 482,-452 346,-452 241,-433 166,-394 91,-355 54,-301 54,-233 54,-203 66,-174 91,-146 115,-118 162,-84 232,-43 193,-28 159,-1 132,37 104,75 90,115 90,157 Z M 785,-166 C 785,-103 743,-71 658,-71 L 341,-71 C 282,-114 253,-162 253,-216 253,-259 274,-291 315,-312 356,-333 412,-344 483,-344 580,-344 654,-328 707,-297 759,-266 785,-222 785,-166 Z M 494,410 C 543,410 579,429 601,468 623,506 634,563 634,640 634,717 623,773 602,810 580,846 544,864 494,864 448,864 415,846 394,810 373,773 362,717 362,640 362,563 372,506 393,468 414,429 447,410 494,410 Z"/>
   <glyph unicode="e" horiz-adv-x="801" d="M 494,963 C 621,963 714,929 771,861 828,793 856,687 856,544 L 856,462 363,462 363,446 C 363,347 371,276 387,234 403,192 429,160 465,138 501,116 550,105 613,105 672,105 746,115 835,134 L 835,57 C 798,35 751,17 693,3 634,-12 577,-19 522,-19 368,-19 254,21 181,102 107,182 70,306 70,475 70,639 105,761 176,842 246,923 352,963 494,963 Z M 483,862 C 443,862 413,840 394,797 374,754 364,677 364,567 L 582,567 C 582,656 579,719 573,756 567,792 557,819 543,836 528,853 508,862 483,862 Z"/>
   <glyph unicode="d" horiz-adv-x="1041" d="M 733,53 C 696,29 667,13 647,6 627,-2 604,-8 579,-13 554,-18 526,-20 495,-20 356,-20 253,20 185,100 117,179 83,302 83,467 83,630 120,753 193,838 266,923 371,965 510,965 583,965 656,956 730,938 726,960 724,1012 724,1093 L 724,1331 628,1355 628,1421 1013,1421 1013,90 1116,66 1116,0 754,0 Z M 376,475 C 376,350 392,255 423,190 454,124 499,91 558,91 611,91 667,105 724,134 L 724,842 C 672,856 619,863 566,863 506,863 459,830 426,765 393,699 376,602 376,475 Z"/>
   <glyph unicode="c" horiz-adv-x="801" d="M 858,57 C 828,33 787,14 734,1 681,-12 626,-19 570,-19 403,-19 278,21 195,102 112,183 70,306 70,472 70,575 89,664 127,738 164,811 218,868 288,907 358,946 439,965 532,965 625,965 727,953 837,930 L 837,652 765,652 723,817 C 700,834 678,845 656,852 634,859 605,862 569,862 530,862 494,846 462,815 430,784 405,740 388,683 370,626 361,557 361,478 361,344 382,248 424,191 465,134 531,105 622,105 714,105 793,115 858,134 Z"/>
   <glyph unicode="a" horiz-adv-x="941" d="M 546,961 C 781,961 899,874 899,701 L 899,90 993,66 993,0 647,0 625,72 C 573,37 526,13 484,-1 442,-14 400,-20 357,-20 163,-20 66,73 66,260 66,331 80,387 109,430 138,472 179,503 233,524 287,544 372,555 488,558 L 610,561 610,698 C 610,811 564,868 471,868 415,868 352,851 283,816 L 245,699 179,699 179,926 C 280,941 354,951 401,955 448,959 497,961 546,961 Z M 610,472 L 526,469 C 461,466 417,449 392,418 367,387 354,336 354,266 354,209 364,168 384,141 404,114 430,101 462,101 507,101 557,113 610,136 Z"/>
   <glyph unicode=" " horiz-adv-x="520"/>
  </font>
 </defs>
 <defs class="TextShapeIndex">
  <g ooo:slide="id1" ooo:id-list="id3 id4 id5 id6"/>
 </defs>
 <defs class="EmbeddedBulletChars">
  <g id="bullet-char-template-57356" transform="scale(0.00048828125,-0.00048828125)">
   <path d="M 580,1141 L 1163,571 580,0 -4,571 580,1141 Z"/>
  </g>
  <g id="bullet-char-template-57354" transform="scale(0.00048828125,-0.00048828125)">
   <path d="M 8,1128 L 1137,1128 1137,0 8,0 8,1128 Z"/>
  </g>
  <g id="bullet-char-template-10146" transform="scale(0.00048828125,-0.00048828125)">
   <path d="M 174,0 L 602,739 174,1481 1456,739 174,0 Z M 1358,739 L 309,1346 659,739 1358,739 Z"/>
  </g>
  <g id="bullet-char-template-10132" transform="scale(0.00048828125,-0.00048828125)">
   <path d="M 2015,739 L 1276,0 717,0 1260,543 174,543 174,936 1260,936 717,1481 1274,1481 2015,739 Z"/>
  </g>
  <g id="bullet-char-template-10007" transform="scale(0.00048828125,-0.00048828125)">
   <path d="M 0,-2 C -7,14 -16,27 -25,37 L 356,567 C 262,823 215,952 215,954 215,979 228,992 255,992 264,992 276,990 289,987 310,991 331,999 354,1012 L 381,999 492,748 772,1049 836,1024 860,1049 C 881,1039 901,1025 922,1006 886,937 835,863 770,784 769,783 710,716 594,584 L 774,223 C 774,196 753,168 711,139 L 727,119 C 717,90 699,76 672,76 641,76 570,178 457,381 L 164,-76 C 142,-110 111,-127 72,-127 30,-127 9,-110 8,-76 1,-67 -2,-52 -2,-32 -2,-23 -1,-13 0,-2 Z"/>
  </g>
  <g id="bullet-char-template-10004" transform="scale(0.00048828125,-0.00048828125)">
   <path d="M 285,-33 C 182,-33 111,30 74,156 52,228 41,333 41,471 41,549 55,616 82,672 116,743 169,778 240,778 293,778 328,747 346,684 L 369,508 C 377,444 397,411 428,410 L 1163,1116 C 1174,1127 1196,1133 1229,1133 1271,1133 1292,1118 1292,1087 L 1292,965 C 1292,929 1282,901 1262,881 L 442,47 C 390,-6 338,-33 285,-33 Z"/>
  </g>
  <g id="bullet-char-template-9679" transform="scale(0.00048828125,-0.00048828125)">
   <path d="M 813,0 C 632,0 489,54 383,161 276,268 223,411 223,592 223,773 276,916 383,1023 489,1130 632,1184 813,1184 992,1184 1136,1130 1245,1023 1353,916 1407,772 1407,592 1407,412 1353,268 1245,161 1136,54 992,0 813,0 Z"/>
  </g>
  <g id="bullet-char-template-8226" transform="scale(0.00048828125,-0.00048828125)">
   <path d="M 346,457 C 273,457 209,483 155,535 101,586 74,649 74,723 74,796 101,859 155,911 209,963 273,989 346,989 419,989 480,963 531,910 582,859 608,796 608,723 608,648 583,586 532,535 482,483 420,457 346,457 Z"/>
  </g>
  <g id="bullet-char-template-8211" transform="scale(0.00048828125,-0.00048828125)">
   <path d="M -4,459 L 1135,459 1135,606 -4,606 -4,459 Z"/>
  </g>
  <g id="bullet-char-template-61548" transform="scale(0.00048828125,-0.00048828125)">
   <path d="M 173,740 C 173,903 231,1043 346,1159 462,1274 601,1332 765,1332 928,1332 1067,1274 1183,1159 1299,1043 1357,903 1357,740 1357,577 1299,437 1183,322 1067,206 928,148 765,148 601,148 462,206 346,322 231,437 173,577 173,740 Z"/>
  </g>
 </defs>
 <defs class="TextEmbeddedBitmaps"/>
 <g>
  <g id="id2" class="Master_Slide">
   <g id="bg-id2" class="Background"/>
   <g id="bo-id2" class="BackgroundObjects"/>
  </g>
 </g>
 <g class="SlideGroup">
  <g>
   <g id="container-id1">
    <g id="id1" class="Slide" clip-path="url(#presentation_clip_path)">
     <g class="Page">
      <g class="com.sun.star.drawing.TextShape">
       <g id="id3">
        <rect class="BoundingBox" stroke="none" fill="none" x="4531" y="300" width="8613" height="1293"/>
        <text class="TextShape"><tspan class="TextParagraph" font-family="Liberation Mono" font-size="917px" font-weight="700"><tspan class="TextPosition" x="4781" y="1191"><tspan fill="rgb(42,96,153)" stroke="none">ls</tspan><tspan fill="rgb(0,0,0)" stroke="none">  </tspan><tspan fill="rgb(201,33,30)" stroke="none">-F</tspan><tspan fill="rgb(0,0,0)" stroke="none">  /bin</tspan></tspan></tspan></text>
       </g>
      </g>
      <g class="com.sun.star.drawing.CaptionShape">
       <g id="id4">
        <rect class="BoundingBox" stroke="none" fill="none" x="6182" y="1605" width="1805" height="2235"/>
        <path fill="rgb(246,249,212)" stroke="none" d="M 7084,3838 L 6183,3838 6183,3100 7985,3100 7985,3838 7084,3838 Z"/>
        <path fill="none" stroke="rgb(18,118,34)" d="M 7084,3838 L 6183,3838 6183,3100 7985,3100 7985,3838 7084,3838 Z"/>
        <path fill="none" stroke="rgb(18,118,34)" d="M 7283,1870 L 7084,2352 7084,3100"/>
        <path fill="rgb(18,118,34)" stroke="none" d="M 7393,1605 L 7186,1844 7371,1920 7393,1605 Z"/>
        <text class="TextShape"><tspan class="TextParagraph" font-family="Liberation Serif, serif" font-size="423px" font-weight="700"><tspan class="TextPosition" x="6506" y="3611"><tspan fill="rgb(0,0,0)" stroke="none">option</tspan></tspan></tspan></text>
       </g>
      </g>
      <g class="com.sun.star.drawing.CaptionShape">
       <g id="id5">
        <rect class="BoundingBox" stroke="none" fill="none" x="10170" y="1561" width="4925" height="1517"/>
        <path fill="rgb(246,249,212)" stroke="none" d="M 13200,3076 L 11307,3076 11307,2338 15093,2338 15093,3076 13200,3076 Z"/>
        <path fill="none" stroke="rgb(18,118,34)" d="M 13200,3076 L 11307,3076 11307,2338 15093,2338 15093,3076 13200,3076 Z"/>
        <path fill="none" stroke="rgb(18,118,34)" d="M 10297,1818 L 10738,2707 11307,2707"/>
        <path fill="rgb(18,118,34)" stroke="none" d="M 10170,1561 L 10214,1874 10393,1785 10170,1561 Z"/>
        <text class="TextShape"><tspan class="TextParagraph" font-family="Liberation Serif, serif" font-size="423px" font-weight="700"><tspan class="TextPosition" x="11788" y="2849"><tspan fill="rgb(0,0,0)" stroke="none">other argument</tspan></tspan></tspan></text>
       </g>
      </g>
      <g class="com.sun.star.drawing.CaptionShape">
       <g id="id6">
        <rect class="BoundingBox" stroke="none" fill="none" x="245" y="1564" width="4739" height="1537"/>
        <path fill="rgb(246,249,212)" stroke="none" d="M 1792,3099 L 246,3099 246,2357 3337,2357 3337,3099 1792,3099 Z"/>
        <path fill="none" stroke="rgb(18,118,34)" d="M 1792,3099 L 246,3099 246,2357 3337,2357 3337,3099 1792,3099 Z"/>
        <path fill="none" stroke="rgb(18,118,34)" d="M 4817,1798 L 4159,2728 3337,2728"/>
        <path fill="rgb(18,118,34)" stroke="none" d="M 4982,1564 L 4727,1751 4890,1867 4982,1564 Z"/>
        <text class="TextShape"><tspan class="TextParagraph" font-family="Liberation Serif, serif" font-size="423px" font-weight="700"><tspan class="TextPosition" x="899" y="2870"><tspan fill="rgb(0,0,0)" stroke="none">command</tspan></tspan></tspan></text>
       </g>
      </g>
     </g>
    </g>
   </g>
  </g>
 </g>
</svg>